{
  "jobs": {
    "total": 30,
    "limit": 10,
    "page": "1",
    "pages": 2,
    "docs": [
      {
        "_id": "5b7d66ba86e3399e3bf95c90",
        "key": "social-media-specialist-wanted",
        "positionType": "freelance",
        "locationShort": "oslo",
        "title": "Social Media Specialist Wanted!",
        "company": {
          "key": "grundr-as",
          "name": "Grundr AS",
          "logo": {
            "filename": "584ab8a72c2e49901c133a5a/logo_upload-9c07c1f18740873ab478aeda28891d71.png",
            "originalname": "grundr logo.png",
            "path": "public/files",
            "size": 60025,
            "filetype": "image/png"
          }
        },
        "approvedAt": "2018-08-22T13:36:52.120Z",
        "id": "5b7d66ba86e3399e3bf95c90",
        "domain": "hub.no",
        "locationLabel": "Oslo"
      },
      {
        "_id": "5b7d4d368319cae802cf00bd",
        "key": "sem-manager-optimalprint",
        "positionType": "full-time",
        "locationShort": "oslo",
        "title": "SEM Manager, Optimalprint",
        "company": {
          "key": "gelato",
          "name": "Gelato",
          "logo": {
            "filename": "5a5cbacce5a381f9645a57b0/logo_upload-ecce63719de74951328de1f19818f2d5.JPG",
            "originalname": "1.JPG",
            "path": "public/files",
            "size": 13009,
            "filetype": "image/jpeg"
          }
        },
        "approvedAt": "2018-08-22T12:52:59.504Z",
        "id": "5b7d4d368319cae802cf00bd",
        "domain": "hub.no",
        "locationLabel": "Oslo"
      },
      {
        "_id": "5b7d48c9c919964616887d2a",
        "approvedAt": "2018-08-22T12:52:43.374Z",
        "company": {
          "key": "pineleaf-studio",
          "name": "Pineleaf Studio",
          "logo": {
            "filename": "5b729d7d2e346871071e602b/logo_upload-4168567506f9e45c365690c6740bd3eb.png",
            "originalname": "pineleafgrey.png",
            "path": "public/files",
            "size": 59952,
            "filetype": "image/png"
          }
        },
        "title": "Backend developer",
        "locationShort": "trondheim",
        "positionType": "student",
        "key": "backend-developer-12",
        "id": "5b7d48c9c919964616887d2a",
        "domain": "hub.no",
        "locationLabel": "Trondheim"
      },
      {
        "_id": "5b7d336a09709f20574c27ce",
        "key": "product-developer",
        "company": {
          "key": "vepak",
          "name": "VEPAK",
          "logo": {
            "filename": "5a2a69e6de067a20355546a1/logo_upload-4372e3c3dbedc7d2c68f1bbbc717bb6c.jpg",
            "originalname": "4.jpg",
            "path": "public/files",
            "size": 83257,
            "filetype": "image/jpeg"
          }
        },
        "title": "Product Developer",
        "locationShort": "trondheim",
        "positionType": "full-time",
        "approvedAt": "2018-08-22T11:19:32.333Z",
        "id": "5b7d336a09709f20574c27ce",
        "domain": "hub.no",
        "locationLabel": "Trondheim"
      },
      {
        "_id": "5b7d31ee09709f20574c27cd",
        "key": "production-manager-1",
        "company": {
          "key": "vepak",
          "name": "VEPAK",
          "logo": {
            "filename": "5a2a69e6de067a20355546a1/logo_upload-4372e3c3dbedc7d2c68f1bbbc717bb6c.jpg",
            "originalname": "4.jpg",
            "path": "public/files",
            "size": 83257,
            "filetype": "image/jpeg"
          }
        },
        "title": "Production Manager",
        "locationShort": "oslo",
        "positionType": "full-time",
        "approvedAt": "2018-08-22T11:19:32.205Z",
        "id": "5b7d31ee09709f20574c27cd",
        "domain": "hub.no",
        "locationLabel": "Oslo"
      },
      {
        "_id": "5b7d304d09709f20574c27cc",
        "key": "it-manager-2-positions",
        "company": {
          "key": "vepak",
          "name": "VEPAK",
          "logo": {
            "filename": "5a2a69e6de067a20355546a1/logo_upload-4372e3c3dbedc7d2c68f1bbbc717bb6c.jpg",
            "originalname": "4.jpg",
            "path": "public/files",
            "size": 83257,
            "filetype": "image/jpeg"
          }
        },
        "title": "IT Manager (2 positions)",
        "locationShort": "oslo",
        "positionType": "full-time",
        "approvedAt": "2018-08-22T11:19:32.137Z",
        "id": "5b7d304d09709f20574c27cc",
        "domain": "hub.no",
        "locationLabel": "Oslo"
      },
      {
        "_id": "5b7d2d5bdc60b6426ce11300",
        "key": "service-mechanic-for-europe-2-positions",
        "company": {
          "key": "vepak",
          "name": "VEPAK",
          "logo": {
            "filename": "5a2a69e6de067a20355546a1/logo_upload-4372e3c3dbedc7d2c68f1bbbc717bb6c.jpg",
            "originalname": "4.jpg",
            "path": "public/files",
            "size": 83257,
            "filetype": "image/jpeg"
          }
        },
        "title": "Service Mechanic for Europe (2 positions)",
        "locationShort": "oslo",
        "positionType": "full-time",
        "approvedAt": "2018-08-22T11:19:32.080Z",
        "id": "5b7d2d5bdc60b6426ce11300",
        "domain": "hub.no",
        "locationLabel": "Oslo"
      },
      {
        "_id": "5b7d3808c919964616887d25",
        "approvedAt": "2018-08-22T11:05:05.956Z",
        "company": {
          "key": "pineleaf-studio",
          "name": "Pineleaf Studio",
          "logo": {
            "filename": "5b729d7d2e346871071e602b/logo_upload-4168567506f9e45c365690c6740bd3eb.png",
            "originalname": "pineleafgrey.png",
            "path": "public/files",
            "size": 59952,
            "filetype": "image/png"
          }
        },
        "title": "Game developer",
        "locationShort": "trondheim",
        "positionType": "student",
        "key": "game-developer-2",
        "id": "5b7d3808c919964616887d25",
        "domain": "hub.no",
        "locationLabel": "Trondheim"
      },
      {
        "_id": "5b7afc1dee59818d68203b56",
        "key": "platform-engineer",
        "positionType": "full-time",
        "locationShort": "oslo",
        "title": "Platform Engineer",
        "company": {
          "key": "imerso",
          "name": "Imerso",
          "logo": {
            "filename": "5804d837b01cdcbe5f47fb99/logo_upload-45b284bf67729ede73eeed4cacfe9c91.png",
            "originalname": "Screen Shot 2018-01-16 at 17.47.46.png",
            "path": "public/files",
            "size": 301287,
            "filetype": "image/png"
          }
        },
        "approvedAt": "2018-08-21T09:07:23.917Z",
        "id": "5b7afc1dee59818d68203b56",
        "domain": "hub.no",
        "locationLabel": "Oslo"
      },
      {
        "_id": "5b7afd3cee59818d68203b57",
        "key": "front-end-3d-visualisation-engineer",
        "positionType": "full-time",
        "locationShort": "oslo",
        "title": "Front-end / 3D Visualisation Engineer",
        "company": {
          "key": "imerso",
          "name": "Imerso",
          "logo": {
            "filename": "5804d837b01cdcbe5f47fb99/logo_upload-45b284bf67729ede73eeed4cacfe9c91.png",
            "originalname": "Screen Shot 2018-01-16 at 17.47.46.png",
            "path": "public/files",
            "size": 301287,
            "filetype": "image/png"
          }
        },
        "approvedAt": "2018-08-21T09:07:23.911Z",
        "id": "5b7afd3cee59818d68203b57",
        "domain": "hub.no",
        "locationLabel": "Oslo"
      },
      {
        "_id": "5b7bc8a31c0d2ee02c5b5573",
        "key": "content-manager",
        "positionType": "full-time",
        "locationShort": "oslo",
        "title": "Content Manager ",
        "company": {
          "key": "startuplab",
          "name": "StartupLab",
          "logo": {
            "filename": "586cf1b9e2f99c22339ce9a1/logo_upload-ebb612d60f6e4ce4683ffb848a8adc1d.png",
            "originalname": "logo final.png",
            "path": "public/files",
            "size": 38615,
            "filetype": "image/png"
          }
        },
        "approvedAt": "2018-08-21T09:07:23.666Z",
        "id": "5b7bc8a31c0d2ee02c5b5573",
        "domain": "hub.no",
        "locationLabel": "Oslo"
      },
      {
        "_id": "5b72cafb2e346871071e6038",
        "key": "fashion-intern",
        "positionType": "internship",
        "locationShort": "oslo",
        "title": "Fashion Intern",
        "company": {
          "key": "sobo-community",
          "name": "SoBo Community",
          "logo": {
            "filename": "580a18a3cfc0c12925c5a200/logo_upload-d26ec5e48e48fccc9ddf64f3fc55d471.jpg",
            "originalname": "2_Logo_Nesten_svart_Small_V1.jpg",
            "path": "public/files",
            "size": 14120,
            "filetype": "image/jpeg"
          }
        },
        "approvedAt": "2018-08-17T07:40:55.000Z",
        "id": "5b72cafb2e346871071e6038",
        "domain": "hub.no",
        "locationLabel": "Oslo"
      },
      {
        "_id": "5b757307c2eb594570e77bcb",
        "key": "marketing-assistant",
        "positionType": "internship",
        "locationShort": "oslo",
        "title": "Marketing Assistant",
        "company": {
          "key": "new-wave-media-limited",
          "name": "New Wave Media Limited",
          "logo": {
            "filename": "5b754b2ac2eb594570e77bc4/logo_upload-671efcabe1746ba8fd52c2357d05645e.jpg",
            "originalname": "2.jpg",
            "path": "public/files",
            "size": 13118,
            "filetype": "image/jpeg"
          }
        },
        "approvedAt": "2018-08-16T13:35:11.000Z",
        "id": "5b757307c2eb594570e77bcb",
        "domain": "hub.no",
        "locationLabel": "Oslo"
      },
      {
        "_id": "5b754dc9c2eb594570e77bc5",
        "key": "angular-developer",
        "positionType": "part-time",
        "locationShort": "restoftheworld",
        "title": "Angular Developer",
        "company": {
          "key": "new-wave-media-limited",
          "name": "New Wave Media Limited",
          "logo": {
            "filename": "5b754b2ac2eb594570e77bc4/logo_upload-671efcabe1746ba8fd52c2357d05645e.jpg",
            "originalname": "2.jpg",
            "path": "public/files",
            "size": 13118,
            "filetype": "image/jpeg"
          }
        },
        "approvedAt": "2018-08-16T12:41:03.000Z",
        "id": "5b754dc9c2eb594570e77bc5",
        "domain": "hub.no",
        "locationLabel": "Rest of the world"
      },
      {
        "_id": "5b752210c2eb594570e77bba",
        "approvedAt": "2018-08-16T09:43:28.672Z",
        "company": {
          "key": "the-innovation-effect",
          "name": "The Innovation Effect ",
          "logo": {
            "filename": "586a5e0ae2f99c22339ce983/logo_upload-3615f5a3fedd974a3dd30ebf10d7a11d.png",
            "originalname": "logo final.png",
            "path": "public/files",
            "size": 40746,
            "filetype": "image/png"
          }
        },
        "title": "Markedsundersøkelse- og konseptutviklingsprosjekt for Philips Professional Displays Solutions ",
        "locationShort": "oslo",
        "positionType": "student",
        "key": "markedsundersokelse-og-konseptutviklingsprosjekt-for-philips-professional-displays-solutions",
        "id": "5b752210c2eb594570e77bba",
        "domain": "hub.no",
        "locationLabel": "Oslo"
      }
    ]
  }
}
